<?xml version="1.0" encoding="UTF-8"?>
<svg width="340px" height="46px" viewBox="0 0 340 46" version="1.1" xmlns="http://www.w3.org/2000/svg" xmlns:xlink="http://www.w3.org/1999/xlink">
    <!-- Generator: Sketch 50 (54983) - http://www.bohemiancoding.com/sketch -->
    <title>logo_ticketmaster</title>
    <desc>Created with Sketch.</desc>
    <defs></defs>
    <g id="Page-1" stroke="none" stroke-width="1" fill="none" fill-rule="evenodd">
        <g id="logo_ticketmaster" fill="#000000" fill-rule="nonzero">
            <path d="M209.15,40.37 L209.03,40.37 C206.277,43.841 203.524,45.817 199.095,45.817 C193.532,45.817 189.583,42.704 189.583,37.02 C189.583,26.846 200.951,26.068 208.491,26.068 L211.304,26.068 C211.543,25.229 211.543,24.332 211.543,23.434 C211.543,20.324 208.193,19.424 205.38,19.424 C201.848,19.424 198.437,20.322 195.265,21.817 L196.401,15.414 C199.813,14.218 203.284,13.559 206.876,13.559 C213.039,13.559 218.844,15.833 218.844,23.074 C218.844,27.203 215.792,39.293 215.074,45.094 L208.312,45.094 L209.15,40.364 L209.15,40.37 Z M201.309,39.945 C207.294,39.945 209.15,35.816 210.409,30.845 L207.597,30.845 C203.707,30.845 197.244,31.504 197.244,36.71 C197.244,38.864 199.278,39.942 201.313,39.942 L201.309,39.945 Z" id="Shape"></path>
            <path d="M1.256,14.25 L7.062,14.25 L8.438,7.907 L17.056,5.093 L15.081,14.249 L22.263,14.249 L21.006,20.114 L13.824,20.114 L10.892,33.579 C10.712,34.296 10.533,35.375 10.533,36.57 C10.533,38.426 11.79,39.562 13.586,39.562 C15.023,39.562 16.458,39.263 17.476,38.844 L16.099,45.069 C14.722,45.368 13.166,45.787 11.79,45.787 C6.344,45.787 2.514,43.633 2.514,37.707 C2.514,35.315 2.993,32.98 3.532,30.528 L5.806,20.114 L-1.77635684e-15,20.114 L1.256,14.25" id="Shape"></path>
            <path d="M25.555,14.25 L33.575,14.25 L26.992,45.07 L18.972,45.07 L25.555,14.25 Z M28.488,0.965 L36.508,0.965 L34.833,8.626 L26.813,8.626 L28.489,0.965 L28.488,0.965 Z" id="Shape"></path>
            <path d="M57.792,21.31 C56.234,20.292 54.141,19.753 51.927,19.753 C45.523,19.753 41.932,25.738 41.932,31.543 C41.932,35.553 43.249,39.563 48.755,39.563 C50.73,39.563 53.184,39.024 55.277,38.007 L54.38,44.352 C51.927,45.548 49.293,45.788 46.66,45.788 C38.7,45.788 33.55,40.463 33.55,32.503 C33.55,21.731 40.672,13.533 51.74,13.533 C54.732,13.533 57.605,14.072 59.76,14.729 L57.785,21.313" id="Shape"></path>
            <polygon id="Shape" points="66.59 0.19 74.61 0.19 69.28 25.44 69.4 25.44 80.59 14.25 91 14.25 76.22 28.31 85.5 45.07 76.46 45.07 68.5 28.73 68.38 28.73 64.911 45.07 57.07 45.07"></polygon>
            <path d="M119.91,14.25 L125.715,14.25 L127.091,7.907 L135.709,5.093 L133.735,14.249 L140.917,14.249 L139.66,20.114 L132.477,20.114 L129.545,33.579 C129.365,34.296 129.186,35.375 129.186,36.57 C129.186,38.426 130.443,39.562 132.239,39.562 C133.676,39.562 135.112,39.263 136.128,38.844 L134.751,45.069 C133.376,45.368 131.819,45.787 130.443,45.787 C124.997,45.787 121.167,43.633 121.167,37.707 C121.167,35.315 121.646,32.98 122.185,30.528 L124.459,20.114 L118.654,20.114 L119.91,14.25" id="Shape"></path>
            <path d="M117.23,25.26 C117.23,17.419 112.2,13.531 104.603,13.531 C94.488,13.531 87.067,22.748 87.067,32.322 C87.067,41.478 93.052,45.786 101.909,45.786 C105.2,45.786 108.612,45.009 111.723,44.052 L112.742,37.706 C109.748,39.084 106.576,39.921 103.285,39.921 C98.156,39.921 95.159,38.099 94.773,33.253 L94.766,33.253 C94.752,32.971 94.725,32.697 94.725,32.401 C94.725,32.344 94.729,32.287 94.729,32.23 C94.729,32.2 94.727,32.172 94.727,32.14 L94.733,32.14 C94.769,30.03 95.232,27.947 96.036,26.026 C97.577,22.104 99.756,19.394 104.481,19.394 C107.832,19.394 109.569,21.248 109.569,24.54 C109.569,25.258 109.509,25.916 109.389,26.634 L98.417,26.634 C97.705,29.055 97.581,30.679 97.565,32.139 L116.451,32.139 C116.93,29.867 117.23,27.593 117.23,25.26" id="Shape"></path>
            <path d="M144.38,17.66 C144.619,16.463 144.858,15.206 145.039,14.248 L152.52,14.248 L151.802,18.378 L151.921,18.378 C154.076,15.206 157.606,13.531 161.376,13.531 C165.027,13.531 168.797,15.685 169.216,19.395 L169.336,19.395 C171.371,15.385 175.859,13.531 180.168,13.531 C184.775,13.531 188.725,17.3 188.725,21.969 C188.725,24.721 188.008,27.834 187.35,30.347 L184.118,45.068 L176.098,45.068 L179.33,30.048 C179.748,28.194 180.347,25.321 180.347,23.466 C180.347,21.192 178.612,19.756 176.577,19.756 C171.01,19.756 169.634,26.219 168.617,30.409 L165.445,45.07 L157.425,45.07 L160.656,30.05 C161.075,28.196 161.674,25.323 161.674,23.468 C161.674,21.194 159.938,19.758 157.903,19.758 C152.457,19.758 150.96,26.281 149.943,30.411 L146.771,45.072 L138.751,45.072 L144.375,17.664" id="Shape"></path>
            <path d="M242.66,20.52 C241.798,20.051 239.584,19.392 237.31,19.392 C234.917,19.392 231.925,20.051 231.925,22.502 C231.925,26.392 242.337,27.831 242.337,35.37 C242.337,43.39 235.337,45.782 228.453,45.782 C225.222,45.782 221.989,45.305 219.057,43.928 L220.793,37.525 C223.067,38.781 225.341,39.918 228.453,39.918 C231.147,39.918 233.959,39.019 233.959,36.508 C233.959,31.54 223.547,31.059 223.547,23.341 C223.547,16.099 230.547,13.527 236.892,13.527 C239.824,13.527 242.816,14.066 244.396,14.474 L242.66,20.524" id="Shape"></path>
            <path d="M247.78,14.25 L253.586,14.25 L254.962,7.907 L263.581,5.093 L261.606,14.249 L268.787,14.249 L267.53,20.114 L260.348,20.114 L257.416,33.579 C257.236,34.296 257.058,35.375 257.058,36.57 C257.058,38.426 258.315,39.562 260.11,39.562 C261.546,39.562 262.982,39.263 263.999,38.844 L262.624,45.069 C261.247,45.368 259.691,45.787 258.315,45.787 C252.868,45.787 249.039,43.633 249.039,37.707 C249.039,35.315 249.518,32.98 250.055,30.528 L252.331,20.114 L246.526,20.114 L247.78,14.25" id="Shape"></path>
            <path d="M302.15,18.38 C302.389,17.063 302.629,15.687 302.868,14.25 L310.529,14.25 L309.451,20.057 L309.572,20.057 C311.009,16.705 314.957,13.534 318.672,13.534 C319.69,13.534 320.767,13.592 321.724,13.833 L320.049,21.673 C319.151,21.373 318.013,21.194 316.997,21.194 C311.311,21.194 308.558,26.281 307.541,31.244 L304.668,45.067 L296.648,45.067 L302.153,18.376" id="Shape"></path>
            <path d="M296.59,25.26 C296.59,17.419 291.56,13.531 283.962,13.531 C273.849,13.531 266.427,22.748 266.427,32.322 C266.427,41.478 272.411,45.786 281.269,45.786 C284.56,45.786 287.972,45.009 291.083,44.052 L292.101,37.706 C289.108,39.084 285.937,39.921 282.646,39.921 C277.515,39.921 274.519,38.099 274.132,33.253 L274.126,33.253 C274.112,32.971 274.085,32.697 274.085,32.401 C274.085,32.344 274.088,32.287 274.09,32.23 C274.09,32.2 274.087,32.172 274.087,32.14 L274.093,32.14 C274.128,30.03 274.591,27.947 275.396,26.026 C276.936,22.104 279.115,19.394 283.841,19.394 C287.191,19.394 288.928,21.248 288.928,24.54 C288.928,25.258 288.868,25.916 288.749,26.634 L277.775,26.634 C277.064,29.055 276.939,30.679 276.924,32.139 L295.81,32.139 C296.29,29.867 296.59,27.593 296.59,25.26" id="Shape"></path>
            <path d="M333.07,12.41 C336.885,12.41 340.002,15.518 340.002,19.343 C340.002,23.159 336.886,26.266 333.07,26.266 C329.252,26.266 326.136,23.159 326.136,19.343 C326.136,15.518 329.252,12.41 333.07,12.41 Z M333.092,25.235 C336.274,25.235 338.677,22.661 338.677,19.343 C338.677,16.022 336.275,13.447 333.092,13.447 C329.867,13.447 327.461,16.021 327.461,19.343 C327.461,22.662 329.867,25.235 333.092,25.235 Z M330.422,15.27 L333.53,15.27 C335.396,15.27 336.314,16.022 336.314,17.559 C336.314,18.861 335.49,19.803 334.218,19.803 L336.53,23.394 L335.124,23.394 L332.856,19.803 L331.747,19.803 L331.747,23.394 L330.423,23.394 L330.423,15.27 L330.422,15.27 Z M331.746,18.765 L333.317,18.765 C334.335,18.765 334.994,18.553 334.994,17.499 C334.994,16.579 334.167,16.308 333.317,16.308 L331.746,16.308 L331.746,18.765 Z" id="Shape"></path>
        </g>
    </g>
</svg>